{
  "component": "wiagl-components/Consent",
  "centered_text": "University of California, Los Angeles\n\n## RESEARCH INFORMATION SHEET\n\nSubjective Well-Being Web Surveys: Data Collection\n\n",
  "consent_following": "### INTRODUCTION\n\nProfessors Daniel Benjamin (University of California, Los Angeles), Kristen Cooper (Gordon College), Ori Heffetz (Hebrew University of Jerusalem), and Miles Kimball (National Bureau of Economic Research) are conducting a research study. This study is being funded by the National Institutes of Health. You were selected as a possible participant in this study because you are a participant on Amazon’s Mechanical Turk or Prolific. Your participation in this research study is voluntary.\n\n",
  "module_name": "initial",
  "procedure": "### WHAT SHOULD I KNOW ABOUT A RESEARCH STUDY?\n\n* Whether or not you take part is up to you.\n\n* You can choose not to take part.\n\n* You can agree to take part and later change your mind.\n\n* Your decision will not be held against you.\n\n* You can ask all the questions you want before you decide.\n\n",
  "potential": "### WHY IS THIS RESEARCH BEING DONE?\n\nWe are a group of scientists gathering data to develop an index of subjective well-being.\n\n ### HOW LONG WILL THE RESEARCH LAST AND WHAT WILL I NEED TO DO?\n\nParticipation will take a total of about 35 minutes. We also may send you additional surveys in the future, which you will have the option of completing for additional payment.\n\n If you volunteer to participate in this survey, the researcher will ask you to do the following:\n\n* Answer a series of questions about your levels of various aspects of well-being and the relative importance of each of these aspects in your life.\n\n* Answer questions to help us learn more about you, and how you are thinking about these questions.\n\nNote: You may only take this survey 1 (ONE) time.\n\n### ARE THERE ANY RISKS IF I PARTICIPATE?\n\nBecause we will ask you questions that may cause you to think deeply about your life, we are required to provide you with the following hotline contact information. If you have suicidal thoughts, please contact The National Suicide Prevention Lifeline at 1-800-273-8255 or online at [(www.suicidepreventionlifeline.org)](www.suicidepreventionlifeline.org), or call 211. We encourage you to use this referral information if you are having suicidal thoughts or experiencing depression. No other risks are anticipated.\n\n### ARE THERE ANY BENEFITS IF I PARTICIPATE?\n\nYou will not directly benefit from your participation in the research.\n\nThe results of the research may help researchers learn more about how to measure people’s well-being. We also hope that after further developing this survey, we will be able to measure the well-being of larger populations, even entire countries.\n\n### HOW WILL INFORMATION ABOUT ME AND MY PARTICIPATION BE KEPT CONFIDENTIAL?\n\nThe researchers will do their best to make sure that your private information is kept confidential. Information about you will be handled as confidentially as possible, but participating in research may involve a loss of privacy and the potential for a breach in confidentiality. Study data will be electronically secured.  As with any use of electronic means to store data, there is a risk of breach of data security.\n\n### Use of personal information that can identify you:\n\nDuring the survey, we will use your device’s IP address to identify your approximate location, using a website such as https://db-ip.com/. We will keep the city, state, country, and corresponding geo-coordinates of your current IP address. We also use IP addresses to detect potentially fraudulent survey respondents.\n\nAdditionally, we use your MTurk ID or Prolific ID to issue payment.\n\n### How information about you will be stored:\n\nThis survey is conducted on Amazon Mechanical Turk and Prolific and it adheres to bot Amazon MTurk's and Prolifics Privacy Policies. To understand the privacy and confidentiality limitations associated with using MTurk, we strongly advise you to familiarize yourself with Amazon’s privacy policies (https://www.mturk.com/mturk/privacynotice) and note that any work performed on MTurk can be linked to the user’s public profile page. Similarly, Prolific’s privacy policies are at ( https://participant-help.prolific.co/hc/en-gb/sections/360004026793--Practices-Security-and-Privacy ), and a Prolific ID can also be linked to the user’s public profile page.Thus, workers may want to restrict what information they choose to share in their public profile.\n\nAll data will be encrypted during storage, with the exception of two variables: an anonymized version of your MTurk ID or Prolific ID and the number of times you have completed this survey. This data is not encrypted because your web browser must be able to read it in order to show you the right version of the survey.\n\nWe will remove any identifiable data (MTurk ID/Prolific ID and IP address) before conducting our analysis. At the completion of the study, direct identifiers (your MTurk ID/Prolific ID) will be destroyed unless explicit permission is given by you to keep your identifier so that we may send you future studies to see if you are interested in completing them.\n\n### People and agencies that will have access to your information:\n\nThe research team, authorized UCLA personnel, and the National Institutes of Health may have access to study data and records to monitor the study.  Research records provided to anyone else will not contain identifiable information about you. Publications and/or presentations that result from this study will not identify you by name.\n\nEmployees of the University may have access to identifiable information as part of routine processing of your information, such as lab work or processing payment. However, University employees are bound by strict rules of confidentiality.\n\n### How long information from the study will be kept:\n\nThe information from this study will be kept until the study is completed.\n\n### USE OF DATA FOR FUTURE RESEARCH\n\nYour de-identified data will be kept for use in future research related to well-being. You may not withdraw your data later. You will not be informed of any incidental or other findings related to the research.\n\nAny information that identifies you (such as your MTurk Worker ID or Prolific ID) will be removed from your data before being shared with others outside the research team. The de-identified data will be stored and made available for future research use by a digital repository, such as the Interuniversity Consortium for Political and Social Research (ICPSR).\n\n",
  "payment": "### WILL I BE PAID FOR MY PARTICIPATION? \n\nYou will receive $4.50 for your participation in this survey. You will be paid via your MTurk account/Prolific account and will receive payment within 30 days of completing our survey, if not sooner.",
  "consent_end" : "### WHO CAN I CONTACT IF I HAVE QUESTIONS ABOUT THIS STUDY?\n\n #### The research team:\n\nIf you have any questions, comments or concerns about the research, you can talk to the one of the researchers. Please contact: Professor Dan Benjamin at daniel.benjamin@anderson.ucla.edu\n\n#### UCLA Office of the Human Research Protection Program (OHRPP):\n\nIf you have questions about your rights as a research subject, or you have concerns or suggestions and you want to talk to someone other than the researchers, you may contact the UCLA OHRPP by phone: (310) 206-2040; by email: [(participants@research.ucla.edu)](participants@research.ucla.edu) or by mail: Box 951406, Los Angeles, CA 90095-1406.\n\n### WHAT ARE MY RIGHTS IF I TAKE PART IN THIS STUDY?\n\n* You can choose whether or not you want to be in this study, and you may withdraw your consent and discontinue participation at any time.\n\n* Whatever decision you make, there will be no penalty to you, and no loss of benefits to which you were otherwise entitled.\n\n",
  "agree": "I have read the information provided above. I have been given a chance to contact the researchers with any questions. My questions have either been answered to my satisfaction, or I do not have any questions. If I choose, I will print a copy of this screen and/or request a pdf of this form from the researchers."  
}

