{
    "component": "packs-components/Randomize",
    "seed": "$workerId",
    "seedConstant":0,
    "states": [
      {
        "reminder": "$alwaysShowReminder",
        "should_decrease": false,
        "weight": 4
      },
      {
        "reminder": "$alwaysShowReminder",
        "should_decrease": true,
        "weight": 4
      },
      {
        "reminder": "$notNeverShowReminder",
        "should_decrease": true,
        "weight": 1
      },
      {
        "reminder": "$notNeverShowReminder",
        "should_decrease": false,
        "weight": 1
      }
    ]
  }