{
  "aspects": [
    {
      "code": 4,
      "color": "$color_4",
      "rating": "$rating_4",
      "text": "$text_4"
    },
    {
      "code": 5,
      "color": "$color_5",
      "rating": "$rating_5",
      "text": "$text_5"
    },
    {
      "code": 3,
      "color": "$color_3",
      "rating": "$rating_3",
      "text": "$text_3"
    }
  ],
  "bucket": "$bucket_3",
  "component": "wiagl-components/Tradeoff",
  "scale": "$scale",
  "should_decrease": "$should_decrease",
  "triple_code": 1,
  "skip": {
    "or": [
      {
        "===" : ["$rating_3_skip", "$skipRatingText"] 
      },{
        "===" : ["$rating_4_skip", "$skipRatingText"] 
      },{
        "===" : ["$rating_5_skip", "$skipRatingText"] 
      }
    ] 
  }
}