{
  "aspects": [
    {
      "code": 18,
      "color": "$color_18",
      "rating": "$rating_18",
      "text": "$text_18"
    },
    {
      "code": 19,
      "color": "$color_19",
      "rating": "$rating_19",
      "text": "$text_19"
    },
    {
      "code": 20,
      "color": "$color_20",
      "rating": "$rating_20",
      "text": "$text_20"
    }
  ],
  "bucket": "$bucket_18",
  "component": "wiagl-components/Tradeoff",
  "scale": "$scale",
  "should_decrease": "$should_decrease",
  "triple_code": 6,
  "skip": {
    "or": [
      {
        "===" : ["$rating_18_skip", "$skipRatingText"] 
      },{
        "===" : ["$rating_19_skip", "$skipRatingText"] 
      },{
        "===" : ["$rating_20_skip", "$skipRatingText"] 
      }
    ] 
  }
}