{
    "aspects": [
      {
        "code": "$pv_0_a_0_code",
        "md": "$pv_0_a_0_text",
        "mde": "$pv_0_a_0_expression"
      },
      {
        "code": "$pv_0_a_1_code",
        "md": "$pv_0_a_1_text",
        "mde": "$pv_0_a_1_expression"
      },
      {
        "code": "$pv_0_a_2_code",
        "md": "$pv_0_a_2_text",
        "mde": "$pv_0_a_2_expression"
      }
    ],
   "defaults": {
      "color": "$pv_0_color"
      },
    "bucket": "$pv_0_bucket",
    "component": "wiagl-components/Vignette",
    "instructions": "$pv_0_preamble_instructions",
    "reminder": "$reminder_text",
    "id":"$pv_0_id",
    "order": 1,
    "skip": {
      "!==": [
        "$backend_pv_0_seen",
        true
      ]
    },
    "skip2": {
      "===": [
        "$vig_after_walk",
        true
      ]
    },
    "workerId": "$workerId",
    "name": "baseline"
  }