{
  "aspects": [
    {
      "code": "$iv_0_a_0_code",
      "image": "$iv_0_a_0_image"
    },
    {
      "code": "$iv_0_a_1_code",
      "image": "$iv_0_a_1_image"
    },
    {
      "code": "$iv_0_a_2_code",
      "image": "$iv_0_a_2_image"
    }
  ],
  "defaults": {
    "color": "$iv_0_color",
    "md": "$iv_0_text"
  },
  "code": "$iv_0_a_0_code",
  "bucket": "$iv_0_bucket",
  "instructions": "$iv_0_preamble_instructions",
  "id":"$iv_0_id",
  "order": 1,
  "component": "wiagl-components/Vignette",
  "override_scale": {"max_point": "Highest level possible", "min_point": "Lowest level possible"},
  "skip": {
    "===": [
      "$vig_after_walk",
      true
    ]
  },
  "workerId": "$workerId",
  "name": "baseline"
}